Dispersión y exceso de ceros
…
En este caso, todos los departamentos reportaron casos de dengue durante el período de estudio. Procedamos a cruzar los datos por semana epidemiológica y departamento:

datos |> 
  group_by(semana_epi, departamento) |> 
  summarise(casos = sum(casos)) |> 
  print(n = 20) # Muestra las primeras 20 observaciones

# A tibble: 200 × 3
# Groups:   semana_epi [20]
   semana_epi departamento       casos
        <dbl> <chr>              <dbl>
 1          1 BAHIA BLANCA           1
 2          1 CORONEL DORREGO        0
 3          1 GENERAL ALVARADO       0
 4          1 GENERAL PUEYRREDON     2
 5          1 LA COSTA               1
 6          1 LOBERIA                0
 7          1 MAR CHIQUITA           0
 8          1 NECOCHEA               0
 9          1 PINAMAR                0
10          1 TRES ARROYOS           0
11          2 BAHIA BLANCA           0
12          2 CORONEL DORREGO        0
13          2 GENERAL ALVARADO       0
14          2 GENERAL PUEYRREDON     1
15          2 LA COSTA               0
16          2 LOBERIA                0
17          2 MAR CHIQUITA           0
18          2 NECOCHEA               0
19          2 PINAMAR                1
20          2 TRES ARROYOS           0
# ℹ 180 more rows
…
